data cleaning
…
2 ) 25 
3 ) 10 
4 ) 25 
5 ) 2 
6 ) 2205 
7 ) 3238 
8 ) 10 

lab1 %>% .[,4] %>% unique ## lab 종류

# A tibble: 25 × 1
   LBTEST          
   <chr>           
 1 WBC             
 2 Neutrophil      
 3 Lymphocyte      
 4 Hb              
 5 PLT             
 6 AST             
 7 ALT             
 8 ALP             
 9 Total bilirubin 
10 Direct bilirubin
# ℹ 15 more rows
…
lab1 %>% .[,7] %>% unique ## values

# A tibble: 3,238 × 1
   LBORRES
   <chr>  
 1 3.52   
 2 56.8   
 3 32.8   
 4 10.7   
 5 241    
 6 16     
 7 18     
 8 116    
 9 0.6    
10 <NA>   
# ℹ 3,228 more rows
…
